{
  "ending": "ending of an adventure",
  "endings": [
    "'It's a drop of ditchwater!' said Krible-Krable.",
    "The old Bottle didn't know her either, for it hadn't listened to what she had said, partly - in fact, chiefly - because it thought only of itself.",
    "'Now I am going down to the other beetles and tell them about all the pleasures I have enjoyed on my trip abroad, and I am going to say that now I'm going to stay at home until the horse has worn out his golden shoes.'",
    "The blessed spirits floated around them and lifted up their voices in a joyful hallelujah.",
    "But the patch of turf with the little daisy on it was thrown out into the dusty road; and no one thought any more of the flower that had felt the deepest for the little bird, and had tried so hard to console him and help him.",
    "The Emperor shivered, for he suspected they were right. But he thought, 'This procession has got to go on.' So he walked more proudly than ever, as his noblemen held high the train that wasn't there at all.",
    "Most likely she is waiting there still. But he wanders through the world, telling tales which are not half so merry as that one he told about the matches.",
    "The servants came in to look after their dead Emperor- and there they stood. And the Emperor said, 'Good morning.'",
    "The wedding lasted all of a week, and the three dogs sat at the table, with their eyes opened wider than ever before.",
    "He rustled his feathers and held his slender neck high, as he cried out with full heart: 'I never dreamed there could be so much happiness, when I was the ugly duckling.'",
    "The body of the Mill did not actually rise out of the dust, as it had believed it would do; it had taken the thought literally, and not everything is supposed to be taken literally.",
    "To him the bird sang, 'Chirp, chirp! Chirp, chirp!' and that's how we heard the whole story.",
    "They'll all think I'm only telling them a fairy tale if I say, 'The will-o'-the-wisps are in town, said the Woman of the Marsh! Beware!'",
    "Denmark knows both those two brothers - the world knows them - Oersted!",
    "Long will it be before the time comes when in spirit and truth men say, 'That was the last Swan! The last song from the Swan's Nest!'",
    "There, that's a true story.",
    "God has created, but someday we shall have them, and that will be the most beautiful fairy tale of all, for we ourselves shall have a part in it.",
    "All this was told me by the little old lady who knows what one may imagine.",
    "God was with him and his home was with him, 'even at the uttermost parts of the sea.'.",
    "And we had this story straight from the alderman's newspaper-but that is one you can't always depend upon.",
    "'I preferred his jolly sons,' said the earthworm, but then he had no eyes in his head, poor thing.",
    "No more, nothing more. All stories come to an end."
  ]
}
